src/dump.vcd
$date
	Tue Aug 19 14:18:59 2025
$end
$version
	QuestaSim Version 10.6c
$end
$timescale
	1ns
$end

$scope module uvm_root $end
$upscope $end

$scope module top $end

$scope module ASSERTION $end
$upscope $end
$upscope $end

$scope begin uvm_pkg $end
$var parameter 32 ! UVM_HDL_MAX_WIDTH $end
$var parameter 32 " UVM_STREAMBITS $end
$var parameter 32 # UVM_RADIX $end
$var parameter 32 $ UVM_MACRO_NUMFLAGS $end
$var parameter 32 % UVM_DEFAULT $end
$var parameter 32 & UVM_ALL_ON $end
$var parameter 32 ' UVM_FLAGS_ON $end
$var parameter 32 ( UVM_FLAGS_OFF $end
$var parameter 32 ) UVM_COPY $end
$var parameter 32 * UVM_NOCOPY $end
$var parameter 32 + UVM_COMPARE $end
$var parameter 32 , UVM_NOCOMPARE $end
$var parameter 32 - UVM_PRINT $end
$var parameter 32 . UVM_NOPRINT $end
$var parameter 32 / UVM_RECORD $end
$var parameter 32 0 UVM_NORECORD $end
$var parameter 32 1 UVM_PACK $end
$var parameter 32 2 UVM_NOPACK $end
$var parameter 32 3 UVM_PHYSICAL $end
$var parameter 32 4 UVM_ABSTRACT $end
$var parameter 32 5 UVM_READONLY $end
$var parameter 32 6 UVM_NODEFPRINT $end
$var parameter 32 7 UVM_MACRO_EXTRAS $end
$var parameter 32 8 UVM_FLAGS $end
$var parameter 32 9 UVM_UNPACK $end
$var parameter 32 : UVM_CHECK_FIELDS $end
$var parameter 32 ; UVM_END_DATA_EXTRA $end
$var parameter 32 < UVM_START_FUNCS $end
$var parameter 32 = UVM_SET $end
$var parameter 32 > UVM_SETINT $end
$var parameter 32 ? UVM_SETOBJ $end
$var parameter 32 @ UVM_SETSTR $end
$var parameter 32 A UVM_END_FUNCS $end
$var parameter 32 B UVM_STR_CRC_POLYNOMIAL $end
$var parameter 32 C UVM_STDOUT $end
$var parameter 32 D UVM_LINE_WIDTH $end
$var parameter 32 E UVM_NUM_LINES $end
$var parameter 32 F UVM_SMALL_STRING $end
$var parameter 32 G UVM_LARGE_STRING $end
$var reg 1 H uvm_start_uvm_declarations $end
$var integer 32 I uvm_global_random_seed $end
$var integer 32 J UVM_UNBOUNDED_CONNECTIONS $end

$scope function uvm_hdl_check_path $end
$var integer 32 K uvm_hdl_check_path $end
$upscope $end

$scope function uvm_hdl_deposit $end
$var integer 32 L uvm_hdl_deposit $end
$var reg 1024 M value [1023:0] $end
$upscope $end

$scope function uvm_hdl_force $end
$var integer 32 N uvm_hdl_force $end
$var reg 1024 O value [1023:0] $end
$upscope $end

$scope task uvm_hdl_force_time $end
$var reg 1024 P value [1023:0] $end
$var time 64 Q force_time $end
$upscope $end

$scope function uvm_hdl_release_and_read $end
$var integer 32 R uvm_hdl_release_and_read $end
$var reg 1024 S value [1023:0] $end
$upscope $end

$scope function uvm_hdl_release $end
$var integer 32 T uvm_hdl_release $end
$upscope $end

$scope function uvm_hdl_read $end
$var integer 32 U uvm_hdl_read $end
$var reg 1024 V value [1023:0] $end
$upscope $end

$scope function uvm_dpi_get_next_arg_c $end
$upscope $end

$scope function uvm_dpi_get_tool_name_c $end
$upscope $end

$scope function uvm_dpi_get_tool_version_c $end
$upscope $end

$scope function uvm_dpi_get_next_arg $end
$upscope $end

$scope function uvm_dpi_get_tool_name $end
$upscope $end

$scope function uvm_dpi_get_tool_version $end
$upscope $end

$scope function uvm_dpi_regcomp $end
$upscope $end

$scope function uvm_dpi_regexec $end
$var integer 32 W uvm_dpi_regexec $end
$upscope $end

$scope function uvm_dpi_regfree $end
$upscope $end

$scope function uvm_re_match $end
$var integer 32 X uvm_re_match $end
$upscope $end

$scope function uvm_dump_re_cache $end
$upscope $end

$scope function uvm_glob_to_re $end
$upscope $end

$scope function uvm_revision_string $end
$upscope $end

$scope function uvm_radix_to_string $end
$var integer 32 Y radix $end
$upscope $end

$scope function uvm_instance_scope $end
$var reg 8 Z c [7:0] $end
$var integer 32 [ pos $end
$upscope $end

$scope function uvm_oneway_hash $end
$var integer 32 \ uvm_oneway_hash $end
$var integer 32 ] seed $end
$var reg 1 ^ msb $end
$var reg 8 _ current_byte [7:0] $end
$var reg 32 ` crc1 [31:0] $end
$upscope $end

$scope function uvm_create_random_seed $end
$var integer 32 a uvm_create_random_seed $end
$upscope $end

$scope function uvm_object_value_str $end
$upscope $end

$scope function uvm_leaf_scope $end
$var reg 8 b scope_separator [7:0] $end
$var reg 8 c bracket_match [7:0] $end
$var integer 32 d pos $end
$var integer 32 e bmatches $end
$upscope $end

$scope function uvm_vector_to_string $end
$var reg 4096 f value [4095:0] $end
$var integer 32 g size $end
$var integer 32 h radix $end
$upscope $end

$scope function uvm_get_array_index_int $end
$var integer 32 i uvm_get_array_index_int $end
$var reg 1 j is_wildcard $end
$var integer 32 k i $end
$upscope $end

$scope function uvm_get_array_index_string $end
$var reg 1 l is_wildcard $end
$var integer 32 m i $end
$upscope $end

$scope function uvm_is_array $end
$var reg 1 n uvm_is_array $end
$upscope $end

$scope function uvm_has_wildcard $end
$upscope $end

$scope task run_test $end
$upscope $end

$scope function global_stop_request $end
$upscope $end

$scope function set_global_timeout $end
$var time 64 o timeout $end
$var reg 1 p overridable $end
$upscope $end

$scope function set_global_stop_timeout $end
$var time 64 q timeout $end
$upscope $end

$scope function uvm_report_enabled $end
$var reg 1 r uvm_report_enabled $end
$var integer 32 s verbosity $end
$var reg 2 t severity [1:0] $end
$upscope $end

$scope function uvm_report $end
$var reg 2 u severity [1:0] $end
$var integer 32 v verbosity $end
$var integer 32 w line $end
$upscope $end

$scope function uvm_report_info $end
$var integer 32 x verbosity $end
$var integer 32 y line $end
$upscope $end

$scope function uvm_report_warning $end
$var integer 32 z verbosity $end
$var integer 32 { line $end
$upscope $end

$scope function uvm_report_error $end
$var integer 32 | verbosity $end
$var integer 32 } line $end
$upscope $end

$scope function uvm_report_fatal $end
$var integer 32 ~ verbosity $end
$var integer 32 !! line $end
$upscope $end

$scope function uvm_string_to_severity $end
$var reg 1 "! uvm_string_to_severity $end
$var reg 2 #! sev [1:0] $end
$upscope $end

$scope function uvm_string_to_action $end
$upscope $end

$scope function set_config_int $end
$var reg 4096 $! value [4095:0] $end
$upscope $end

$scope function set_config_object $end
$var reg 1 %! clone $end
$upscope $end

$scope function set_config_string $end
$upscope $end

$scope function uvm_is_match $end
$var reg 1 &! uvm_is_match $end
$upscope $end

$scope function uvm_string_to_bits $end
$var reg 115200 '! uvm_string_to_bits [115199:0] $end
$upscope $end

$scope function uvm_bits_to_string $end
$var reg 115200 (! str [115199:0] $end
$upscope $end

$scope task uvm_wait_for_nba_region $end
$var integer 32 )! nba $end
$var integer 32 *! next_nba $end
$upscope $end

$scope function uvm_split_string $end
$upscope $end

$scope function uvm_hdl_concat2string $end
$upscope $end
$upscope $end

$scope begin alu_pkg $end
$upscope $end

$scope begin top_sv_unit $end
$upscope $end

$scope begin std $end
$upscope $end

$scope begin questa_uvm_pkg $end
$upscope $end
$enddefinitions $end
#0
$dumpvars
0l
0n
0"!
b0 #!
bx '!
bx (!
bx M
bx O
bx P
bx S
bx V
1H
1^
b1110001 _
b10101001000001001110011011111001 `
b10 f
0j
0p
0r
b0 t
b0 u
bx $!
0%!
0&!
b10000000000 !
b1000000000000 "
b1111000000000000000000000000 #
b10001 $
b10101010101 %
b101010101 &
b101010101 '
b0 (
b1 )
b10 *
b100 +
b1000 ,
b10000 -
b100000 .
b1000000 /
b10000000 0
b100000000 1
b1000000000 2
b10000000000000 3
b100000000000000 4
b1000000000000000 5
b10000000000000000 6
b100000000000000000 7
b100000000000000001 8
b100000000000000010 9
b100000000000000011 :
b100000000000000100 ;
b100000000000000101 <
b100000000000000110 =
b100000000000000110 >
b100000000000000111 ?
b100000000000001000 @
b100000000000001000 A
b100110000010001110110110110 B
b1 C
b1111000 D
b1111000 E
b1110111111 F
b11100000111111111 G
b0 Y
b101110 b
b0 c
b11 d
b11111111111111111111111111111111 e
b0 m
b0 K
b0 L
b0 N
b0 R
b0 T
b0 U
b1 W
b0 X
b1101001011000001111100000011110 I
b101110 Z
b111 [
b1101111011110101111001101110100 \
b1101001011000001111100000011110 ]
b1011000001010111010101101101 a
b100000 g
b10000000000000000000000000 h
b0 i
b0 k
b111110100 s
b0 v
b0 w
b11001000 x
b11011001 y
b0 z
b0 {
b0 |
b0 }
b0 ~
b0 !!
b100100 )!
b100100 *!
b11111111111111111111111111111111 J
bx Q
bx o
bx q
$end
#25
b100101 *!
b0 e
b10000 d
b1111 d
b1110 d
b1101 d
b1100 d
b1011 d
b1010 d
b1001 d
b1000 d
b111 d
b110 d
b101 d
b100 d
b11 d
b10 d
b1 d
b0 d
b0 f
b1 g
b111000000000000000000000000 h
b10100 d
b10011 d
b10010 d
b10001 d
b11111111111111111111111111111111 e
b1 f
b0 e
b10011 d
b10010 d
b10001 d
b11111111111111111111111111111111 e
b0 e
b10101 d
b10100 d
b10011 d
b10010 d
b10001 d
b11111111111111111111111111111111 e
b110 f
b100 g
b10000000000000000000000000 h
b0 e
b10100 d
b10011 d
b10010 d
b10001 d
b11111111111111111111111111111111 e
b1 f
b10 g
b1000000000000000000000000 h
b0 e
b11010 d
b11001 d
b11000 d
b10111 d
b10110 d
b10101 d
b10100 d
b10011 d
b10010 d
b10001 d
b11111111111111111111111111111111 e
b11001011 f
b1000 g
b10000000000000000000000000 h
b0 e
b10100 d
b10011 d
b10010 d
b10001 d
b11111111111111111111111111111111 e
b110000 f
b0 e
b10100 d
b10011 d
b10010 d
b10001 d
b11111111111111111111111111111111 e
b1 f
b1 g
b111000000000000000000000000 h
b0 e
b10100 d
b10011 d
b10010 d
b10001 d
b11111111111111111111111111111111 e
b0zzzzzzzzz f
b1001 g
b10000000000000000000000000 h
b0xxxxxxxxx f
b0 e
b10100 d
b10011 d
b10010 d
b10001 d
b11111111111111111111111111111111 e
b0z f
b1 g
b111000000000000000000000000 h
b0x f
b0 e
b10100 d
b10011 d
b10010 d
b10001 d
b11111111111111111111111111111111 e
b0z f
b0x f
b0 e
b10110 d
b10101 d
b10100 d
b10011 d
b10010 d
b10001 d
b11111111111111111111111111111111 e
b0z f
b0x f
b0 e
b10101 d
b10100 d
b10011 d
b10010 d
b10001 d
b11111111111111111111111111111111 e
b0z f
b0x f
b0 e
b10010 d
b10001 d
b11111111111111111111111111111111 e
b0z f
b0x f
b0 e
b10010 d
b10001 d
b11111111111111111111111111111111 e
b0z f
b0x f
b0 e
b10010 d
b10001 d
b11111111111111111111111111111111 e
b11111111110111101100100011100110 a
b1101111011110101111001101110111 a
b1101111011110101111001101111010 a
b100101 )!
b0 e
b10 d
b1 d
b0 d
b0 f
b110 d
b101 d
b100 d
b11 d
b11111111111111111111111111111111 e
b1 f
b0 e
b101 d
b100 d
b11 d
b11111111111111111111111111111111 e
b0 e
b111 d
b110 d
b101 d
b100 d
b11 d
b11111111111111111111111111111111 e
b101 f
b100 g
b10000000000000000000000000 h
b0 e
b110 d
b101 d
b100 d
b11 d
b11111111111111111111111111111111 e
b10 f
b10 g
b1000000000000000000000000 h
b0 e
b1100 d
b1011 d
b1010 d
b1001 d
b1000 d
b111 d
b110 d
b101 d
b100 d
b11 d
b11111111111111111111111111111111 e
b111010 f
b1000 g
b10000000000000000000000000 h
b0 e
b110 d
b101 d
b100 d
b11 d
b11111111111111111111111111111111 e
b10111 f
b0 e
b110 d
b101 d
b100 d
b11 d
b11111111111111111111111111111111 e
b1 f
b1 g
b111000000000000000000000000 h
b0 e
b110 d
b101 d
b100 d
b11 d
b11111111111111111111111111111111 e
b0xxxxxxxxx f
b1001 g
b10000000000000000000000000 h
b0 e
b110 d
b101 d
b100 d
b11 d
b11111111111111111111111111111111 e
b0x f
b1 g
b111000000000000000000000000 h
b0 e
b110 d
b101 d
b100 d
b11 d
b11111111111111111111111111111111 e
b0 e
b1000 d
b111 d
b110 d
b101 d
b100 d
b11 d
b11111111111111111111111111111111 e
b0 e
b111 d
b110 d
b101 d
b100 d
b11 d
b11111111111111111111111111111111 e
b0 e
b100 d
b11 d
b11111111111111111111111111111111 e
b0 e
b100 d
b11 d
b11111111111111111111111111111111 e
b0 e
b100 d
b11 d
b11111111111111111111111111111111 e
b11001 f
b1000000 g
b1001000000000000000000000000 h
b0 e
b1101 d
b1100 d
b1011 d
b1010 d
b1001 d
b1000 d
b111 d
b110 d
b101 d
b100 d
b11 d
b11111111111111111111111111111111 e
b10 f
b100000 g
b10000000000000000000000000 h
b0 e
b1000 d
b111 d
b110 d
b101 d
b100 d
b11 d
b11111111111111111111111111111111 e
b0 e
b11001 d
b11000 d
b10111 d
b10110 d
b10101 d
b10100 d
b10011 d
b10010 d
b10001 d
b10000 d
b1111 d
b1110 d
b1101 d
b1100 d
b1011 d
b1010 d
b1001 d
b1000 d
b111 d
b110 d
b101 d
b100 d
b11 d
b11111111111111111111111111111111 e
b0 e
b11110 d
b11101 d
b11100 d
b11011 d
b11010 d
b11001 d
b11000 d
b10111 d
b10110 d
b10101 d
b10100 d
b10011 d
b10010 d
b10001 d
b10000 d
b1111 d
b1110 d
b1101 d
b1100 d
b1011 d
b1010 d
b1001 d
b1000 d
b111 d
b110 d
b101 d
b100 d
b11 d
b11111111111111111111111111111111 e
b0 e
b1100 d
b1011 d
b1010 d
b1001 d
b1000 d
b111 d
b110 d
b101 d
b100 d
b11 d
b11111111111111111111111111111111 e
#55
b100110 *!
b0 e
b10000 d
b1111 d
b1110 d
b1101 d
b1100 d
b1011 d
b1010 d
b1001 d
b1000 d
b111 d
b110 d
b101 d
b100 d
b11 d
b10 d
b1 d
b0 d
b0 f
b1 g
b111000000000000000000000000 h
b10100 d
b10011 d
b10010 d
b10001 d
b11111111111111111111111111111111 e
b1 f
b0 e
b10011 d
b10010 d
b10001 d
b11111111111111111111111111111111 e
b0 e
b10101 d
b10100 d
b10011 d
b10010 d
b10001 d
b11111111111111111111111111111111 e
b101 f
b100 g
b10000000000000000000000000 h
b0 e
b10100 d
b10011 d
b10010 d
b10001 d
b11111111111111111111111111111111 e
b10 f
b10 g
b1000000000000000000000000 h
b0 e
b11010 d
b11001 d
b11000 d
b10111 d
b10110 d
b10101 d
b10100 d
b10011 d
b10010 d
b10001 d
b11111111111111111111111111111111 e
b111010 f
b1000 g
b10000000000000000000000000 h
b0 e
b10100 d
b10011 d
b10010 d
b10001 d
b11111111111111111111111111111111 e
b10111 f
b0 e
b10100 d
b10011 d
b10010 d
b10001 d
b11111111111111111111111111111111 e
b1 f
b1 g
b111000000000000000000000000 h
b0 e
b10100 d
b10011 d
b10010 d
b10001 d
b11111111111111111111111111111111 e
b11001010 f
b1001 g
b10000000000000000000000000 h
b0 e
b10100 d
b10011 d
b10010 d
b10001 d
b11111111111111111111111111111111 e
b0z f
b1 g
b111000000000000000000000000 h
b0x f
b0 e
b10100 d
b10011 d
b10010 d
b10001 d
b11111111111111111111111111111111 e
b0z f
b0x f
b0 e
b10110 d
b10101 d
b10100 d
b10011 d
b10010 d
b10001 d
b11111111111111111111111111111111 e
b0z f
b0x f
b0 e
b10101 d
b10100 d
b10011 d
b10010 d
b10001 d
b11111111111111111111111111111111 e
b0z f
b0x f
b0 e
b10010 d
b10001 d
b11111111111111111111111111111111 e
b0z f
b0x f
b0 e
b10010 d
b10001 d
b11111111111111111111111111111111 e
b0z f
b0x f
b0 e
b10010 d
b10001 d
b11111111111111111111111111111111 e
b11111111110111101100100011101000 a
b1101111011110101111001101111110 a
b1101111011110101111001110000011 a
b100110 )!
#85
b100111 *!
b11111111110111101100100011101011 a
b1101111011110101111001110001001 a
b1101111011110101111001110010000 a
b100111 )!
#115
b101000 *!
b11111111110111101100100011101111 a
b1101111011110101111001110011000 a
b1101111011110101111001110100001 a
b101000 )!
#145
b101001 *!
b0 e
b10000 d
b1111 d
b1110 d
b1101 d
b1100 d
b1011 d
b1010 d
b1001 d
b1000 d
b111 d
b110 d
b101 d
b100 d
b11 d
b10 d
b1 d
b0 d
b0 f
b10100 d
b10011 d
b10010 d
b10001 d
b11111111111111111111111111111111 e
b1 f
b0 e
b10011 d
b10010 d
b10001 d
b11111111111111111111111111111111 e
b0 e
b10101 d
b10100 d
b10011 d
b10010 d
b10001 d
b11111111111111111111111111111111 e
b0 f
b100 g
b10000000000000000000000000 h
b0 e
b10100 d
b10011 d
b10010 d
b10001 d
b11111111111111111111111111111111 e
b10 g
b1000000000000000000000000 h
b0 e
b11010 d
b11001 d
b11000 d
b10111 d
b10110 d
b10101 d
b10100 d
b10011 d
b10010 d
b10001 d
b11111111111111111111111111111111 e
b1000101 f
b1000 g
b10000000000000000000000000 h
b0 e
b10100 d
b10011 d
b10010 d
b10001 d
b11111111111111111111111111111111 e
b11000111 f
b0 e
b10100 d
b10011 d
b10010 d
b10001 d
b11111111111111111111111111111111 e
b1 f
b1 g
b111000000000000000000000000 h
b0 e
b10100 d
b10011 d
b10010 d
b10001 d
b11111111111111111111111111111111 e
b100101010 f
b1001 g
b10000000000000000000000000 h
b0 e
b10100 d
b10011 d
b10010 d
b10001 d
b11111111111111111111111111111111 e
b0z f
b1 g
b111000000000000000000000000 h
b0x f
b0 e
b10100 d
b10011 d
b10010 d
b10001 d
b11111111111111111111111111111111 e
b0z f
b0x f
b0 e
b10110 d
b10101 d
b10100 d
b10011 d
b10010 d
b10001 d
b11111111111111111111111111111111 e
b1 f
b0 e
b10101 d
b10100 d
b10011 d
b10010 d
b10001 d
b11111111111111111111111111111111 e
b0z f
b0x f
b0 e
b10010 d
b10001 d
b11111111111111111111111111111111 e
b0z f
b0x f
b0 e
b10010 d
b10001 d
b11111111111111111111111111111111 e
b0z f
b0x f
b0 e
b10010 d
b10001 d
b11111111111111111111111111111111 e
b11111111110111101100100011110100 a
b1101111011110101111001110101011 a
b1101111011110101111001110110110 a
b101001 )!
b0 e
b10 d
b1 d
b0 d
b0 f
b110 d
b101 d
b100 d
b11 d
b11111111111111111111111111111111 e
b1 f
b0 e
b101 d
b100 d
b11 d
b11111111111111111111111111111111 e
b0 e
b111 d
b110 d
b101 d
b100 d
b11 d
b11111111111111111111111111111111 e
b1000 f
b100 g
b10000000000000000000000000 h
b0 e
b110 d
b101 d
b100 d
b11 d
b11111111111111111111111111111111 e
b0 f
b10 g
b1000000000000000000000000 h
b0 e
b1100 d
b1011 d
b1010 d
b1001 d
b1000 d
b111 d
b110 d
b101 d
b100 d
b11 d
b11111111111111111111111111111111 e
b11100101 f
b1000 g
b10000000000000000000000000 h
b0 e
b110 d
b101 d
b100 d
b11 d
b11111111111111111111111111111111 e
b1001110 f
b0 e
b110 d
b101 d
b100 d
b11 d
b11111111111111111111111111111111 e
b1 f
b1 g
b111000000000000000000000000 h
b0 e
b110 d
b101 d
b100 d
b11 d
b11111111111111111111111111111111 e
b0xxxxxxxxx f
b1001 g
b10000000000000000000000000 h
b0 e
b110 d
b101 d
b100 d
b11 d
b11111111111111111111111111111111 e
b0x f
b1 g
b111000000000000000000000000 h
b0 e
b110 d
b101 d
b100 d
b11 d
b11111111111111111111111111111111 e
b0 e
b1000 d
b111 d
b110 d
b101 d
b100 d
b11 d
b11111111111111111111111111111111 e
b0 e
b111 d
b110 d
b101 d
b100 d
b11 d
b11111111111111111111111111111111 e
b0 e
b100 d
b11 d
b11111111111111111111111111111111 e
b0 e
b100 d
b11 d
b11111111111111111111111111111111 e
b0 e
b100 d
b11 d
b11111111111111111111111111111111 e
b10010001 f
b1000000 g
b1001000000000000000000000000 h
b0 e
b1101 d
b1100 d
b1011 d
b1010 d
b1001 d
b1000 d
b111 d
b110 d
b101 d
b100 d
b11 d
b11111111111111111111111111111111 e
b10 f
b100000 g
b10000000000000000000000000 h
b0 e
b1000 d
b111 d
b110 d
b101 d
b100 d
b11 d
b11111111111111111111111111111111 e
b0 e
b11001 d
b11000 d
b10111 d
b10110 d
b10101 d
b10100 d
b10011 d
b10010 d
b10001 d
b10000 d
b1111 d
b1110 d
b1101 d
b1100 d
b1011 d
b1010 d
b1001 d
b1000 d
b111 d
b110 d
b101 d
b100 d
b11 d
b11111111111111111111111111111111 e
b0 e
b11110 d
b11101 d
b11100 d
b11011 d
b11010 d
b11001 d
b11000 d
b10111 d
b10110 d
b10101 d
b10100 d
b10011 d
b10010 d
b10001 d
b10000 d
b1111 d
b1110 d
b1101 d
b1100 d
b1011 d
b1010 d
b1001 d
b1000 d
b111 d
b110 d
b101 d
b100 d
b11 d
b11111111111111111111111111111111 e
b0 e
b1100 d
b1011 d
b1010 d
b1001 d
b1000 d
b111 d
b110 d
b101 d
b100 d
b11 d
b11111111111111111111111111111111 e
#175
b101010 *!
b0 e
b10000 d
b1111 d
b1110 d
b1101 d
b1100 d
b1011 d
b1010 d
b1001 d
b1000 d
b111 d
b110 d
b101 d
b100 d
b11 d
b10 d
b1 d
b0 d
b0 f
b1 g
b111000000000000000000000000 h
b10100 d
b10011 d
b10010 d
b10001 d
b11111111111111111111111111111111 e
b1 f
b0 e
b10011 d
b10010 d
b10001 d
b11111111111111111111111111111111 e
b0 e
b10101 d
b10100 d
b10011 d
b10010 d
b10001 d
b11111111111111111111111111111111 e
b1000 f
b100 g
b10000000000000000000000000 h
b0 e
b10100 d
b10011 d
b10010 d
b10001 d
b11111111111111111111111111111111 e
b0 f
b10 g
b1000000000000000000000000 h
b0 e
b11010 d
b11001 d
b11000 d
b10111 d
b10110 d
b10101 d
b10100 d
b10011 d
b10010 d
b10001 d
b11111111111111111111111111111111 e
b11100101 f
b1000 g
b10000000000000000000000000 h
b0 e
b10100 d
b10011 d
b10010 d
b10001 d
b11111111111111111111111111111111 e
b1001110 f
b0 e
b10100 d
b10011 d
b10010 d
b10001 d
b11111111111111111111111111111111 e
b1 f
b1 g
b111000000000000000000000000 h
b0 e
b10100 d
b10011 d
b10010 d
b10001 d
b11111111111111111111111111111111 e
b100101010 f
b1001 g
b10000000000000000000000000 h
b0 e
b10100 d
b10011 d
b10010 d
b10001 d
b11111111111111111111111111111111 e
b0z f
b1 g
b111000000000000000000000000 h
b0x f
b0 e
b10100 d
b10011 d
b10010 d
b10001 d
b11111111111111111111111111111111 e
b0z f
b0x f
b0 e
b10110 d
b10101 d
b10100 d
b10011 d
b10010 d
b10001 d
b11111111111111111111111111111111 e
b1 f
b0 e
b10101 d
b10100 d
b10011 d
b10010 d
b10001 d
b11111111111111111111111111111111 e
b0z f
b0x f
b0 e
b10010 d
b10001 d
b11111111111111111111111111111111 e
b0z f
b0x f
b0 e
b10010 d
b10001 d
b11111111111111111111111111111111 e
b0z f
b0x f
b0 e
b10010 d
b10001 d
b11111111111111111111111111111111 e
b11111111110111101100100011111010 a
b1101111011110101111001111000010 a
b1101111011110101111001111001111 a
b101010 )!
b0 e
b10 d
b1 d
b0 d
b0 f
b110 d
b101 d
b100 d
b11 d
b11111111111111111111111111111111 e
b1 f
b0 e
b101 d
b100 d
b11 d
b11111111111111111111111111111111 e
b0 e
b111 d
b110 d
b101 d
b100 d
b11 d
b11111111111111111111111111111111 e
b1001 f
b100 g
b10000000000000000000000000 h
b0 e
b110 d
b101 d
b100 d
b11 d
b11111111111111111111111111111111 e
b11 f
b10 g
b1000000000000000000000000 h
b0 e
b1100 d
b1011 d
b1010 d
b1001 d
b1000 d
b111 d
b110 d
b101 d
b100 d
b11 d
b11111111111111111111111111111111 e
b110101 f
b1000 g
b10000000000000000000000000 h
b0 e
b110 d
b101 d
b100 d
b11 d
b11111111111111111111111111111111 e
b11000011 f
b0 e
b110 d
b101 d
b100 d
b11 d
b11111111111111111111111111111111 e
b1 f
b1 g
b111000000000000000000000000 h
b0 e
b110 d
b101 d
b100 d
b11 d
b11111111111111111111111111111111 e
b0xxxxxxxxx f
b1001 g
b10000000000000000000000000 h
b0 e
b110 d
b101 d
b100 d
b11 d
b11111111111111111111111111111111 e
b0x f
b1 g
b111000000000000000000000000 h
b0 e
b110 d
b101 d
b100 d
b11 d
b11111111111111111111111111111111 e
b0 e
b1000 d
b111 d
b110 d
b101 d
b100 d
b11 d
b11111111111111111111111111111111 e
b0 e
b111 d
b110 d
b101 d
b100 d
b11 d
b11111111111111111111111111111111 e
b0 e
b100 d
b11 d
b11111111111111111111111111111111 e
b0 e
b100 d
b11 d
b11111111111111111111111111111111 e
b0 e
b100 d
b11 d
b11111111111111111111111111111111 e
b10101111 f
b1000000 g
b1001000000000000000000000000 h
b0 e
b1101 d
b1100 d
b1011 d
b1010 d
b1001 d
b1000 d
b111 d
b110 d
b101 d
b100 d
b11 d
b11111111111111111111111111111111 e
b10 f
b100000 g
b10000000000000000000000000 h
b0 e
b1000 d
b111 d
b110 d
b101 d
b100 d
b11 d
b11111111111111111111111111111111 e
b0 e
b11001 d
b11000 d
b10111 d
b10110 d
b10101 d
b10100 d
b10011 d
b10010 d
b10001 d
b10000 d
b1111 d
b1110 d
b1101 d
b1100 d
b1011 d
b1010 d
b1001 d
b1000 d
b111 d
b110 d
b101 d
b100 d
b11 d
b11111111111111111111111111111111 e
b0 e
b11110 d
b11101 d
b11100 d
b11011 d
b11010 d
b11001 d
b11000 d
b10111 d
b10110 d
b10101 d
b10100 d
b10011 d
b10010 d
b10001 d
b10000 d
b1111 d
b1110 d
b1101 d
b1100 d
b1011 d
b1010 d
b1001 d
b1000 d
b111 d
b110 d
b101 d
b100 d
b11 d
b11111111111111111111111111111111 e
b0 e
b1100 d
b1011 d
b1010 d
b1001 d
b1000 d
b111 d
b110 d
b101 d
b100 d
b11 d
b11111111111111111111111111111111 e
#205
b101011 *!
b0 e
b10000 d
b1111 d
b1110 d
b1101 d
b1100 d
b1011 d
b1010 d
b1001 d
b1000 d
b111 d
b110 d
b101 d
b100 d
b11 d
b10 d
b1 d
b0 d
b0 f
b1 g
b111000000000000000000000000 h
b10100 d
b10011 d
b10010 d
b10001 d
b11111111111111111111111111111111 e
b1 f
b0 e
b10011 d
b10010 d
b10001 d
b11111111111111111111111111111111 e
b0 e
b10101 d
b10100 d
b10011 d
b10010 d
b10001 d
b11111111111111111111111111111111 e
b1001 f
b100 g
b10000000000000000000000000 h
b0 e
b10100 d
b10011 d
b10010 d
b10001 d
b11111111111111111111111111111111 e
b11 f
b10 g
b1000000000000000000000000 h
b0 e
b11010 d
b11001 d
b11000 d
b10111 d
b10110 d
b10101 d
b10100 d
b10011 d
b10010 d
b10001 d
b11111111111111111111111111111111 e
b110101 f
b1000 g
b10000000000000000000000000 h
b0 e
b10100 d
b10011 d
b10010 d
b10001 d
b11111111111111111111111111111111 e
b11000011 f
b0 e
b10100 d
b10011 d
b10010 d
b10001 d
b11111111111111111111111111111111 e
b1 f
b1 g
b111000000000000000000000000 h
b0 e
b10100 d
b10011 d
b10010 d
b10001 d
b11111111111111111111111111111111 e
b101011000 f
b1001 g
b10000000000000000000000000 h
b0 e
b10100 d
b10011 d
b10010 d
b10001 d
b11111111111111111111111111111111 e
b0z f
b1 g
b111000000000000000000000000 h
b0x f
b0 e
b10100 d
b10011 d
b10010 d
b10001 d
b11111111111111111111111111111111 e
b0z f
b0x f
b0 e
b10110 d
b10101 d
b10100 d
b10011 d
b10010 d
b10001 d
b11111111111111111111111111111111 e
b0z f
b0x f
b0 e
b10101 d
b10100 d
b10011 d
b10010 d
b10001 d
b11111111111111111111111111111111 e
b0z f
b0x f
b0 e
b10010 d
b10001 d
b11111111111111111111111111111111 e
b0z f
b0x f
b0 e
b10010 d
b10001 d
b11111111111111111111111111111111 e
b0z f
b0x f
b0 e
b10010 d
b10001 d
b11111111111111111111111111111111 e
b11111111110111101100100100000001 a
b1101111011110101111001111011101 a
b1101111011110101111001111101100 a
b101011 )!
#235
b101100 *!
b11111111110111101100100100001001 a
b1101111011110101111001111111100 a
b1101111011110101111010000001101 a
b101100 )!
#265
b101101 *!
b11111111110111101100100100010010 a
b1101111011110101111010000011111 a
b1101111011110101111010000110010 a
b101101 )!
