src/dump.vcd
$date
	Fri Aug 29 23:55:25 2025
$end
$version
	QuestaSim Version 10.6c
$end
$timescale
	1ns
$end

$scope module uvm_root $end
$upscope $end

$scope module top $end
$var reg 1 ! clk $end

$scope module DUT $end
$var parameter 32 " DW $end
$var parameter 32 # CW $end
$var wire 1 $ OPA [7] $end
$var wire 1 % OPA [6] $end
$var wire 1 & OPA [5] $end
$var wire 1 ' OPA [4] $end
$var wire 1 ( OPA [3] $end
$var wire 1 ) OPA [2] $end
$var wire 1 * OPA [1] $end
$var wire 1 + OPA [0] $end
$var wire 1 , OPB [7] $end
$var wire 1 - OPB [6] $end
$var wire 1 . OPB [5] $end
$var wire 1 / OPB [4] $end
$var wire 1 0 OPB [3] $end
$var wire 1 1 OPB [2] $end
$var wire 1 2 OPB [1] $end
$var wire 1 3 OPB [0] $end
$var wire 1 4 CLK $end
$var wire 1 5 RST $end
$var wire 1 6 CE $end
$var wire 1 7 MODE $end
$var wire 1 8 CIN $end
$var wire 1 9 CMD [3] $end
$var wire 1 : CMD [2] $end
$var wire 1 ; CMD [1] $end
$var wire 1 < CMD [0] $end
$var wire 1 = INP_VALID [1] $end
$var wire 1 > INP_VALID [0] $end
$var reg 10 ? RES [9:0] $end
$var reg 1 @ COUT $end
$var reg 1 A OFLOW $end
$var reg 1 B G $end
$var reg 1 C E $end
$var reg 1 D L $end
$var reg 1 E ERR $end
$var reg 8 F OPA_1 [7:0] $end
$var reg 8 G OPB_1 [7:0] $end
$var reg 8 H oprd1 [7:0] $end
$var reg 8 I oprd2 [7:0] $end
$var reg 4 J CMD_tmp [3:0] $end
$var reg 8 K AU_out_tmp1 [7:0] $end
$var reg 8 L AU_out_tmp2 [7:0] $end
$var reg 5 M wait_counter [4:0] $end
$var reg 1 N oprd1_valid $end
$var reg 1 O oprd2_valid $end
$upscope $end

$scope module ASSERTION $end
$var parameter 32 P DW $end
$var parameter 32 Q CW $end
$var reg 1 R rst $end
$var reg 1 S clk $end
$var reg 1 T mode $end
$var reg 1 U ce $end
$var reg 1 V cin $end
$var reg 2 W inp_valid [1:0] $end
$var reg 4 X cmd [3:0] $end
$var reg 8 Y opa [7:0] $end
$var reg 8 Z opb [7:0] $end
$var reg 9 [ res [8:0] $end
$var reg 1 \ err $end
$var reg 1 ] oflow $end
$var reg 1 ^ cout $end
$var reg 1 _ g $end
$var reg 1 ` l $end
$var reg 1 a e $end
$upscope $end
$upscope $end

$scope begin uvm_pkg $end
$var parameter 32 b UVM_HDL_MAX_WIDTH $end
$var parameter 32 c UVM_STREAMBITS $end
$var parameter 32 d UVM_RADIX $end
$var parameter 32 e UVM_MACRO_NUMFLAGS $end
$var parameter 32 f UVM_DEFAULT $end
$var parameter 32 g UVM_ALL_ON $end
$var parameter 32 h UVM_FLAGS_ON $end
$var parameter 32 i UVM_FLAGS_OFF $end
$var parameter 32 j UVM_COPY $end
$var parameter 32 k UVM_NOCOPY $end
$var parameter 32 l UVM_COMPARE $end
$var parameter 32 m UVM_NOCOMPARE $end
$var parameter 32 n UVM_PRINT $end
$var parameter 32 o UVM_NOPRINT $end
$var parameter 32 p UVM_RECORD $end
$var parameter 32 q UVM_NORECORD $end
$var parameter 32 r UVM_PACK $end
$var parameter 32 s UVM_NOPACK $end
$var parameter 32 t UVM_PHYSICAL $end
$var parameter 32 u UVM_ABSTRACT $end
$var parameter 32 v UVM_READONLY $end
$var parameter 32 w UVM_NODEFPRINT $end
$var parameter 32 x UVM_MACRO_EXTRAS $end
$var parameter 32 y UVM_FLAGS $end
$var parameter 32 z UVM_UNPACK $end
$var parameter 32 { UVM_CHECK_FIELDS $end
$var parameter 32 | UVM_END_DATA_EXTRA $end
$var parameter 32 } UVM_START_FUNCS $end
$var parameter 32 ~ UVM_SET $end
$var parameter 32 !! UVM_SETINT $end
$var parameter 32 "! UVM_SETOBJ $end
$var parameter 32 #! UVM_SETSTR $end
$var parameter 32 $! UVM_END_FUNCS $end
$var parameter 32 %! UVM_STR_CRC_POLYNOMIAL $end
$var parameter 32 &! UVM_STDOUT $end
$var parameter 32 '! UVM_LINE_WIDTH $end
$var parameter 32 (! UVM_NUM_LINES $end
$var parameter 32 )! UVM_SMALL_STRING $end
$var parameter 32 *! UVM_LARGE_STRING $end
$var reg 1 +! uvm_start_uvm_declarations $end
$var integer 32 ,! uvm_global_random_seed $end
$var integer 32 -! UVM_UNBOUNDED_CONNECTIONS $end

$scope function uvm_hdl_check_path $end
$var integer 32 .! uvm_hdl_check_path $end
$upscope $end

$scope function uvm_hdl_deposit $end
$var integer 32 /! uvm_hdl_deposit $end
$var reg 1024 0! value [1023:0] $end
$upscope $end

$scope function uvm_hdl_force $end
$var integer 32 1! uvm_hdl_force $end
$var reg 1024 2! value [1023:0] $end
$upscope $end

$scope task uvm_hdl_force_time $end
$var reg 1024 3! value [1023:0] $end
$var time 64 4! force_time $end
$upscope $end

$scope function uvm_hdl_release_and_read $end
$var integer 32 5! uvm_hdl_release_and_read $end
$var reg 1024 6! value [1023:0] $end
$upscope $end

$scope function uvm_hdl_release $end
$var integer 32 7! uvm_hdl_release $end
$upscope $end

$scope function uvm_hdl_read $end
$var integer 32 8! uvm_hdl_read $end
$var reg 1024 9! value [1023:0] $end
$upscope $end

$scope function uvm_dpi_get_next_arg_c $end
$upscope $end

$scope function uvm_dpi_get_tool_name_c $end
$upscope $end

$scope function uvm_dpi_get_tool_version_c $end
$upscope $end

$scope function uvm_dpi_get_next_arg $end
$upscope $end

$scope function uvm_dpi_get_tool_name $end
$upscope $end

$scope function uvm_dpi_get_tool_version $end
$upscope $end

$scope function uvm_dpi_regcomp $end
$upscope $end

$scope function uvm_dpi_regexec $end
$var integer 32 :! uvm_dpi_regexec $end
$upscope $end

$scope function uvm_dpi_regfree $end
$upscope $end

$scope function uvm_re_match $end
$var integer 32 ;! uvm_re_match $end
$upscope $end

$scope function uvm_dump_re_cache $end
$upscope $end

$scope function uvm_glob_to_re $end
$upscope $end

$scope function uvm_revision_string $end
$upscope $end

$scope function uvm_radix_to_string $end
$var integer 32 <! radix $end
$upscope $end

$scope function uvm_instance_scope $end
$var reg 8 =! c [7:0] $end
$var integer 32 >! pos $end
$upscope $end

$scope function uvm_oneway_hash $end
$var integer 32 ?! uvm_oneway_hash $end
$var integer 32 @! seed $end
$var reg 1 A! msb $end
$var reg 8 B! current_byte [7:0] $end
$var reg 32 C! crc1 [31:0] $end
$upscope $end

$scope function uvm_create_random_seed $end
$var integer 32 D! uvm_create_random_seed $end
$upscope $end

$scope function uvm_object_value_str $end
$upscope $end

$scope function uvm_leaf_scope $end
$var reg 8 E! scope_separator [7:0] $end
$var reg 8 F! bracket_match [7:0] $end
$var integer 32 G! pos $end
$var integer 32 H! bmatches $end
$upscope $end

$scope function uvm_vector_to_string $end
$var reg 4096 I! value [4095:0] $end
$var integer 32 J! size $end
$var integer 32 K! radix $end
$upscope $end

$scope function uvm_get_array_index_int $end
$var integer 32 L! uvm_get_array_index_int $end
$var reg 1 M! is_wildcard $end
$var integer 32 N! i $end
$upscope $end

$scope function uvm_get_array_index_string $end
$var reg 1 O! is_wildcard $end
$var integer 32 P! i $end
$upscope $end

$scope function uvm_is_array $end
$var reg 1 Q! uvm_is_array $end
$upscope $end

$scope function uvm_has_wildcard $end
$upscope $end

$scope task run_test $end
$upscope $end

$scope function global_stop_request $end
$upscope $end

$scope function set_global_timeout $end
$var time 64 R! timeout $end
$var reg 1 S! overridable $end
$upscope $end

$scope function set_global_stop_timeout $end
$var time 64 T! timeout $end
$upscope $end

$scope function uvm_report_enabled $end
$var reg 1 U! uvm_report_enabled $end
$var integer 32 V! verbosity $end
$var reg 2 W! severity [1:0] $end
$upscope $end

$scope function uvm_report $end
$var reg 2 X! severity [1:0] $end
$var integer 32 Y! verbosity $end
$var integer 32 Z! line $end
$upscope $end

$scope function uvm_report_info $end
$var integer 32 [! verbosity $end
$var integer 32 \! line $end
$upscope $end

$scope function uvm_report_warning $end
$var integer 32 ]! verbosity $end
$var integer 32 ^! line $end
$upscope $end

$scope function uvm_report_error $end
$var integer 32 _! verbosity $end
$var integer 32 `! line $end
$upscope $end

$scope function uvm_report_fatal $end
$var integer 32 a! verbosity $end
$var integer 32 b! line $end
$upscope $end

$scope function uvm_string_to_severity $end
$var reg 1 c! uvm_string_to_severity $end
$var reg 2 d! sev [1:0] $end
$upscope $end

$scope function uvm_string_to_action $end
$upscope $end

$scope function set_config_int $end
$var reg 4096 e! value [4095:0] $end
$upscope $end

$scope function set_config_object $end
$var reg 1 f! clone $end
$upscope $end

$scope function set_config_string $end
$upscope $end

$scope function uvm_is_match $end
$var reg 1 g! uvm_is_match $end
$upscope $end

$scope function uvm_string_to_bits $end
$var reg 115200 h! uvm_string_to_bits [115199:0] $end
$upscope $end

$scope function uvm_bits_to_string $end
$var reg 115200 i! str [115199:0] $end
$upscope $end

$scope task uvm_wait_for_nba_region $end
$var integer 32 j! nba $end
$var integer 32 k! next_nba $end
$upscope $end

$scope function uvm_split_string $end
$upscope $end

$scope function uvm_hdl_concat2string $end
$upscope $end
$upscope $end

$scope begin alu_pkg $end
$upscope $end

$scope begin top_sv_unit $end
$upscope $end

$scope begin std $end
$upscope $end

$scope begin questa_uvm_pkg $end
$upscope $end
$enddefinitions $end
#0
$dumpvars
0!
b0zzzzzzzzz ?
z@
zA
zB
zC
zD
zE
bx F
bx G
bx H
bx I
bx J
bx K
bx L
bx M
xN
xO
0R
0S
1T
1U
1V
b1 W
b11 X
b11101 Y
b110 Z
bz [
z\
z]
z^
z_
z`
za
0O!
0Q!
0c!
b0 d!
bx h!
bx i!
bx 0!
bx 2!
bx 3!
bx 6!
bx 9!
1+!
1A!
b1110001 B!
b1110100101000011111111011110101 C!
b1 I!
0M!
0S!
0U!
b0 W!
b0 X!
bx e!
0f!
0g!
b1000 "
b100 #
b1000 P
b100 Q
b10000000000 b
b1000000000000 c
b1111000000000000000000000000 d
b10001 e
b10101010101 f
b101010101 g
b101010101 h
b0 i
b1 j
b10 k
b100 l
b1000 m
b10000 n
b100000 o
b1000000 p
b10000000 q
b100000000 r
b1000000000 s
b10000000000000 t
b100000000000000 u
b1000000000000000 v
b10000000000000000 w
b100000000000000000 x
b100000000000000001 y
b100000000000000010 z
b100000000000000011 {
b100000000000000100 |
b100000000000000101 }
b100000000000000110 ~
b100000000000000110 !!
b100000000000000111 "!
b100000000000001000 #!
b100000000000001000 $!
b100110000010001110110110110 %!
b1 &!
b1111000 '!
b1111000 (!
b1110111111 )!
b11100000111111111 *!
b0 <!
b101110 E!
b0 F!
b10111 G!
b11111111111111111111111111111111 H!
b0 P!
b0 .!
b0 /!
b0 1!
b0 5!
b0 7!
b0 8!
b1 :!
b0 ;!
b1101001011000001111100000011110 ,!
b101110 =!
b111 >!
b1110011011000100101011010101001 ?!
b1101001011000001111100000011110 @!
b11101010001011100011100010001 D!
b100000 J!
b10000000000000000000000000 K!
b0 L!
b0 N!
b111110100 V!
b0 Y!
b0 Z!
b11001000 [!
b11011001 \!
b0 ]!
b0 ^!
b0 _!
b0 `!
b0 a!
b0 b!
b100100 j!
b100100 k!
b11111111111111111111111111111111 -!
bx 4!
bx R!
bx T!
04
1>
0=
1+
0*
1)
1(
1'
0&
0%
0$
03
12
11
00
0/
0.
0-
0,
18
05
1<
1;
0:
09
16
17
$end
#5
1!
1S
14
b11101 H
b11 J
1N
b0 M
#10
0!
0S
04
#15
1!
1S
14
#20
0!
0S
04
#25
1!
1S
14
b100101 k!
b11110000101010111100101101110100 D!
b1110011011000100101011010101100 D!
b1110011011000100101011010101111 D!
b100101 j!
0V
b111100 Z
b11111111 Y
b11 W
02
10
1/
1.
1*
1&
1%
1$
1=
08
#30
0!
0S
04
#35
1!
1S
14
b11111111 H
b111100 I
1O
#40
0!
0S
04
#45
1!
1S
14
0A
b11000011 ?
0]
b11000011 [
#50
0!
0S
04
#55
1!
1S
14
b0zzzzzzzzz ?
zA
0A
b11000011 ?
b100110 k!
b11110000101010111100101101110110 D!
b1110011011000100101011010110011 D!
b1110011011000100101011010111000 D!
b100110 j!
1V
b1111001 Z
b10001000 Y
b110 X
b10 W
13
01
1-
0+
0*
0)
0'
0&
0%
0<
1:
0>
18
#60
0!
0S
04
#65
1!
1S
14
b0zzzzzzzzz ?
zA
0A
b11000010 ?
b11000010 [
b1111001 I
b110 J
#70
0!
0S
04
#75
1!
1S
14
b0zzzzzzzzz ?
zA
b1111000 ?
b1111000 [
z]
#80
0!
0S
04
#85
1!
1S
14
b0zzzzzzzzz ?
b1111000 ?
b100111 k!
b11110000101010111100101101111001 D!
b1110011011000100101011010111110 D!
b1110011011000100101011011000101 D!
b100111 j!
0V
b11101010 Z
b1110011 Y
b100 X
b11 W
03
12
0/
1,
1+
1*
0(
1'
1&
1%
0$
0;
1>
08
#90
0!
0S
04
#95
1!
1S
14
b0zzzzzzzzz ?
b1111000 ?
b1110011 H
b11101010 I
b100 J
#100
0!
0S
04
#105
1!
1S
14
b0zzzzzzzzz ?
b1110011 ?
b1110011 [
#110
0!
0S
04
#115
1!
1S
14
b0zzzzzzzzz ?
b1110011 ?
b101000 k!
b11110000101010111100101101111101 D!
b1110011011000100101011011001101 D!
b1110011011000100101011011010110 D!
b101000 j!
1V
b1010111 Z
b111011 Y
b1 W
13
11
00
1/
0.
0,
1(
0%
0=
18
#120
0!
0S
04
#125
1!
1S
14
b0zzzzzzzzz ?
b1110011 ?
b111011 H
#130
0!
0S
04
#135
1!
1S
14
b0zzzzzzzzz ?
b111011 ?
b111011 [
#140
0!
0S
04
#145
1!
1S
14
b0zzzzzzzzz ?
b111011 ?
b101001 k!
b11110000101010111100101110000010 D!
b1110011011000100101011011100000 D!
b1110011011000100101011011101011 D!
b101001 j!
0V
b100010 Z
b1111101 Y
b110 X
b10 W
03
01
0/
1.
0-
0*
1)
1%
1;
0>
1=
08
#150
0!
0S
04
#155
1!
1S
14
b0zzzzzzzzz ?
b111011 ?
b100010 I
b110 J
#160
0!
0S
04
#165
1!
1S
14
b0zzzzzzzzz ?
b100001 ?
b100001 [
#170
0!
0S
04
#175
1!
1S
14
b0zzzzzzzzz ?
b100001 ?
b101010 k!
b11110000101010111100101110001000 D!
b1110011011000100101011011110111 D!
b1110011011000100101011100000100 D!
b101010 j!
b10011 Z
b11100101 Y
b1010 X
13
1/
0.
0(
0'
1$
0:
19
#180
0!
0S
04
#185
1!
1S
14
b0zzzzzzzzz ?
b100001 ?
b10011 I
b1010 J
#190
0!
0S
04
#195
1!
1S
14
b0zzzzzzzzz ?
bz [
b1110110 K
b10011 L
bx ?
bx [
#200
0!
0S
04
#205
1!
1S
14
b0zzzzzzzzz ?
bz [
b1100011 ?
b1100011 [
b101011 k!
b11110000101010111100101110001111 D!
b1110011011000100101011100010010 D!
b1110011011000100101011100100001 D!
b101011 j!
1V
b1100011 Z
b1001011 Y
0/
1.
1-
1*
0)
1(
0&
0$
18
#210
0!
0S
04
#215
1!
1S
14
b0zzzzzzzzz ?
bz [
b1100011 I
b1100011 ?
b1100011 [
#220
0!
0S
04
#225
1!
1S
14
b0zzzzzzzzz ?
bz [
b1100011 L
b1100011 ?
b1100011 [
#230
0!
0S
04
#235
1!
1S
14
b0zzzzzzzzz ?
bz [
b10011 ?
b10011 [
b101100 k!
b11110000101010111100101110010111 D!
b1110011011000100101011100110001 D!
b1110011011000100101011101000010 D!
b101100 j!
b1001100 Z
b1100111 Y
b11 W
03
02
11
10
0.
1)
0(
1&
1>
#240
0!
0S
04
#245
1!
1S
14
b0zzzzzzzzz ?
bz [
b1100111 H
b1001100 I
b10011 ?
b10011 [
#250
0!
0S
04
#255
1!
1S
14
b0zzzzzzzzz ?
bz [
b11001110 K
b1001100 L
b10011 ?
b10011 [
#260
0!
0S
04
#265
1!
1S
14
b0zzzzzzzzz ?
bz [
b10000010 ?
b10000010 [
b101101 k!
b11110000101010111100101110100000 D!
b1110011011000100101011101010100 D!
b1110011011000100101011101100111 D!
b101101 j!
b10001000 Z
b100000 Y
b10 X
01
0-
1,
0+
0*
0)
0%
09
#270
0!
0S
04
#275
1!
1S
14
b0zzzzzzzzz ?
bz [
b100000 H
b10001000 I
b10 J
b10000010 ?
b10000010 [
#280
0!
0S
04
#285
1!
1S
14
b0zzzzzzzzz ?
b10101001 ?
0@
b10101001 [
0^
#290
0!
0S
04
#295
1!
1S
14
b0zzzzzzzzz ?
z@
b10101001 ?
0@
b101110 k!
b11110000101010111100101110101010 D!
b1110011011000100101011101111011 D!
b1110011011000100101011110010000 D!
b101110 j!
b10010011 Z
b1010100 Y
b0 W
13
12
00
1/
1)
1'
0&
1%
0>
0=
#300
0!
0S
04
#305
1!
1S
14
b0zzzzzzzzz ?
z@
b10101001 ?
0@
#310
0!
0S
04
#315
1!
1S
14
b0zzzzzzzzz ?
z@
b10101001 ?
0@
#320
0!
0S
04
#325
1!
1S
14
b0zzzzzzzzz ?
z@
b10101001 ?
0@
b101111 k!
b11110000101010111100101110110101 D!
b1110011011000100101011110100110 D!
b1110011011000100101011110111101 D!
b101111 j!
0V
b11100011 Z
b10110101 Y
0/
1.
1-
1+
1&
0%
1$
08
#330
0!
0S
04
#335
1!
1S
14
b0zzzzzzzzz ?
z@
b10101000 ?
0@
b10101000 [
#340
0!
0S
04
#345
1!
1S
14
b0zzzzzzzzz ?
z@
b10101000 ?
0@
#350
0!
0S
04
#355
1!
1S
14
b0zzzzzzzzz ?
z@
b10101000 ?
0@
b110000 k!
b11110000101010111100101111000001 D!
b1110011011000100101011111010101 D!
b1110011011000100101011111101110 D!
b110000 j!
b10011101 Z
b11111001 Y
b101 X
b11 W
02
11
10
1/
0.
0-
0)
1(
1%
1<
0;
1:
1>
1=
#360
0!
0S
04
#365
1!
1S
14
b0zzzzzzzzz ?
z@
b10101000 ?
0@
b11111001 H
b10011101 I
b101 J
#370
0!
0S
04
#375
1!
1S
14
b0zzzzzzzzz ?
z@
b11111000 ?
b11111000 [
z^
#380
0!
0S
04
#385
1!
1S
14
b0zzzzzzzzz ?
b11111000 ?
b110001 k!
b11110000101010111100101111001110 D!
b1110011011000100101100000001000 D!
b1110011011000100101100000100011 D!
b110001 j!
b11111001 Z
b10100110 Y
b1000 X
b1 W
01
1.
1-
0+
1*
1)
0(
0'
0%
0<
0:
19
0=
#390
0!
0S
04
#395
1!
1S
14
b0zzzzzzzzz ?
b11111000 ?
b10100110 H
b1000 J
#400
0!
0S
04
#405
1!
1S
14
b0zzzzzzzzz ?
1B
bz [
1_
#410
0!
0S
04
#415
1!
1S
14
zB
1B
b110010 k!
b11110000101010111100101111011100 D!
b1110011011000100101100000111111 D!
b1110011011000100101100001011100 D!
b110010 j!
1V
b1010001 Z
b1011101 Y
b11 W
00
0.
0,
1+
0*
1(
1'
0&
1%
0$
1=
18
#420
0!
0S
04
#425
1!
1S
14
zB
1B
b1011101 H
b1010001 I
#430
0!
0S
04
#435
1!
1S
14
zB
1B
#440
0!
0S
04
#445
1!
1S
14
zB
1B
b110011 k!
b11110000101010111100101111101011 D!
b1110011011000100101100001111010 D!
b1110011011000100101100010011001 D!
b110011 j!
b1011010 Z
b11001101 Y
b110 X
b0 W
03
12
10
0'
1$
1;
1:
09
0>
0=
#450
0!
0S
04
#455
1!
1S
14
zB
1B
#460
0!
0S
04
#465
1!
1S
14
zB
1B
#470
0!
0S
04
#475
1!
1S
14
zB
1B
b110100 k!
b11110000101010111100101111111011 D!
b1110011011000100101100010111001 D!
b1110011011000100101100011011010 D!
b110100 j!
0V
b11100010 Z
b1101000 Y
b1000 X
b10 W
00
0/
1.
1,
0+
0)
1&
0$
0;
0:
19
1=
08
#480
0!
0S
04
#485
1!
1S
14
zB
1B
b11100010 I
#490
0!
0S
04
#495
1!
1S
14
zB
1D
z_
1`
#500
0!
0S
04
#505
1!
1S
14
zD
1D
b110101 k!
b11110000101010111100110000001100 D!
b1110011011000100101100011111100 D!
b1110011011000100101100100011111 D!
b110101 j!
1V
b11010111 Z
b10100111 Y
b0 W
13
11
1/
0.
1+
1*
1)
0(
0%
1$
0=
18
#510
0!
0S
04
#515
1!
1S
14
zD
1D
#520
0!
0S
04
#525
1!
1S
14
zD
1D
#530
0!
0S
04
#535
1!
1S
14
zD
1D
b110110 k!
b11110000101010111100110000011110 D!
b1110011011000100101100101000011 D!
b1110011011000100101100101101000 D!
b110110 j!
b10100000 Z
b10000111 Y
b11 X
03
02
01
0/
1.
0-
0&
1<
1;
09
#540
0!
0S
04
#545
1!
1S
14
zD
1D
#550
0!
0S
04
#555
1!
1S
14
zD
1D
#560
0!
0S
04
#565
1!
1S
14
zD
1D
b110111 k!
b11110000101010111100110000110001 D!
b1110011011000100101100110001110 D!
b1110011011000100101100110110101 D!
b110111 j!
b11111 Z
b11100101 Y
b1 X
13
12
11
10
1/
0.
0,
0*
1&
1%
0;
#570
0!
0S
04
#575
1!
1S
14
zD
1D
#580
0!
0S
04
#585
1!
1S
14
zD
1D
#590
0!
0S
04
#595
1!
1S
14
zD
1D
b111000 k!
b111001 k!
b111010 k!
b111000 j!
b111001 j!
b111010 j!
b111011 k!
b111100 k!
b111011 j!
b111100 j!
b11101010001011100011100100011 D!
b11001010011011110110111010100000 D!
b11011001000010001101010111110 D!
b11110011101100010010000001101110 D!
b11100000101011000100000010100000 D!
b10110111001111001100110011001111 D!
b110110110000000001001111101110 D!
b1100011011101000111010001111 D!
b11100111101001011011101101001 D!
b10100111101101111010100111001101 D!
b1001100001010111110111001111 D!
b10110111101000100111011001100000 D!
b10110000000101010001000101001010 D!
b11011001110001011011111010110111 D!
b11000110000001110111111001001000 D!
b11110110100110001100111001111000 D!
b10001011110010110001100111000011 D!
b11110001010000110011000111011111 D!
b110110111000001110000101110001 D!
b11110011101000010111000000011001 D!
b10111011100100100000100110000100 D!
b10011001011101111000001101101111 D!
b11101000111101000011000100011100 D!
b1000111001101110100111010000111 D!
b11110000101011000110100001111011 D!
b10000110100011011000011110100010 D!
b10101111010011111001000011110111 D!
b10110010000100001101110001101111 D!
b1101110011111000011110010100111 D!
b1110110100010010000101111110000 D!
b10100010000010011100111101111010 D!
b111000011000110011100110101111 D!
b11011100000111001000010000111110 D!
b11101010001011100011100110110 D!
b11001010011011110110111010110011 D!
b11011001000010001101011010001 D!
b11110011101100010010000010000001 D!
b11100000101011000100000010110011 D!
b10110111001111001100110011100010 D!
b110110110000000001010000000001 D!
b1100011011101000111010100010 D!
b11100111101001011011101111100 D!
b10100111101101111010100111100000 D!
b1001100001010111110111100010 D!
b10110111101000100111011001110011 D!
b10110000000101010001000101011101 D!
b11011001110001011011111011001010 D!
b11000110000001110111111001011011 D!
b11110110100110001100111010001011 D!
b10001011110010110001100111010110 D!
b11110001010000110011000111110010 D!
b110110111000001110000110000100 D!
b11110011101000010111000000101100 D!
b10111011100100100000100110010111 D!
b10011001011101111000001110000010 D!
b11101000111101000011000100101111 D!
b1000111001101110100111010011010 D!
b11110000101011000110100010001110 D!
b10000110100011011000011110110101 D!
b10101111010011111001000100001010 D!
b10110010000100001101110010000010 D!
b1101110011111000011110010111010 D!
b1110110100010010000110000000011 D!
b10100010000010011100111110001101 D!
b111000011000110011100111000010 D!
b11011100000111001000010001010001 D!
b11101010001011100011101001010 D!
b11001010011011110110111011000111 D!
b11011001000010001101011100101 D!
b11110011101100010010000010010101 D!
b11100000101011000100000011000111 D!
b10110111001111001100110011110110 D!
b110110110000000001010000010101 D!
b1100011011101000111010110110 D!
b11100111101001011011110010000 D!
b10100111101101111010100111110100 D!
b1001100001010111110111110110 D!
b10110111101000100111011010000111 D!
b10110000000101010001000101110001 D!
b11011001110001011011111011011110 D!
b11000110000001110111111001101111 D!
b11110110100110001100111010011111 D!
b10001011110010110001100111101010 D!
b11110001010000110011001000000110 D!
b110110111000001110000110011000 D!
b11110011101000010111000001000000 D!
b10111011100100100000100110101011 D!
b10011001011101111000001110010110 D!
b11101000111101000011000101000011 D!
b1000111001101110100111010101110 D!
b11110000101011000110100010100010 D!
b10000110100011011000011111001001 D!
b10101111010011111001000100011110 D!
b10110010000100001101110010010110 D!
b1101110011111000011110011001110 D!
b1110110100010010000110000010111 D!
b10100010000010011100111110100001 D!
b111000011000110011100111010110 D!
b11011100000111001000010001100101 D!
b11011100000111001000010001111010 D!
b111000011000110011100111101011 D!
b10100010000010011100111110110110 D!
b10111011100100100000100111000000 D!
b11110011101100010010000010101010 D!
b11101010001011100011101011111 D!
b11001010011011110110111011011100 D!
b11011001000010001101011111010 D!
b10110111001111001100110100001011 D!
b11100000101011000100000011011100 D!
b11110011101000010111000001010101 D!
b1001100001010111111000001011 D!
b110110110000000001010000101010 D!
b1100011011101000111011001011 D!
b11100111101001011011110100101 D!
b10100111101101111010101000001001 D!
b10110111101000100111011010011100 D!
b10110000000101010001000110000110 D!
b110110111000001110000110101101 D!
b11011001110001011011111011110011 D!
b11000110000001110111111010000100 D!
b11110110100110001100111010110100 D!
b10001011110010110001100111111111 D!
b11110001010000110011001000011011 D!
b1000111001101110100111011000011 D!
b11101000111101000011000101011000 D!
b10011001011101111000001110101011 D!
b10101111010011111001000100110011 D!
b11110000101011000110100010110111 D!
b10000110100011011000011111011110 D!
b1110110100010010000110000101100 D!
b10110010000100001101110010101011 D!
b1101110011111000011110011100011 D!
